Session 4: Homework 2 - Group 23
…
gss_new

## # A tibble: 2,867 x 8
##    emailmin emailhr snapchat instagrm twitter sex    degree         snap_insta
##    <chr>    <chr>   <chr>    <chr>    <chr>   <chr>  <chr>          <chr>     
##  1 0        12      NA       NA       NA      Male   Bachelor       <NA>      
##  2 30       0       No       No       No      Male   High school    No        
##  3 NA       NA      No       No       No      Male   Bachelor       No        
##  4 10       0       NA       NA       NA      Female High school    <NA>      
##  5 NA       NA      Yes      Yes      No      Female Graduate       Yes       
##  6 0        2       No       Yes      No      Female Junior college No        
##  7 0        40      NA       NA       NA      Male   High school    <NA>      
##  8 NA       NA      Yes      Yes      No      Female High school    Yes       
##  9 0        0       NA       NA       NA      Male   High school    <NA>      
## 10 NA       NA      No       No       No      Male   Junior college No        
## # ... with 2,857 more rows
…
gss_edu

## # A tibble: 2,867 x 8
##    emailmin emailhr snapchat instagrm twitter sex    degree     bachelor_gradua~
##    <chr>    <chr>   <chr>    <chr>    <chr>   <chr>  <fct>      <chr>           
##  1 0        12      NA       NA       NA      Male   Bachelor   Yes             
##  2 30       0       No       No       No      Male   High scho~ No              
##  3 NA       NA      No       No       No      Male   Bachelor   Yes             
##  4 10       0       NA       NA       NA      Female High scho~ No              
##  5 NA       NA      Yes      Yes      No      Female Graduate   Yes             
##  6 0        2       No       Yes      No      Female Junior co~ No              
##  7 0        40      NA       NA       NA      Male   High scho~ No              
##  8 NA       NA      Yes      Yes      No      Female High scho~ No              
##  9 0        0       NA       NA       NA      Male   High scho~ No              
## 10 NA       NA      No       No       No      Male   Junior co~ No              
## # ... with 2,857 more rows
…
# Combine the 2 sets of data above
mortality_top_and_bottom <- bind_rows(mortality_head, mortality_tail) %>%
  arrange(region, change) %>%
  select(region, country, change) %>%
  rename(change_in_mortality_rate = change)
  
mortality_top_and_bottom

## # A tibble: 64 x 3
## # Groups:   region [7]
##    region              country           change_in_mortality_rate
##    <chr>               <chr>                                <dbl>
##  1 East Asia & Pacific Timor-Leste                        -116.  
##  2 East Asia & Pacific Lao PDR                             -88.2 
##  3 East Asia & Pacific Mongolia                            -80.2 
##  4 East Asia & Pacific Cambodia                            -75.3 
##  5 East Asia & Pacific Myanmar                             -53.9 
##  6 East Asia & Pacific New Zealand                          -5.20
##  7 East Asia & Pacific Singapore                            -4.9 
##  8 East Asia & Pacific Australia                            -4.70
##  9 East Asia & Pacific Brunei Darussalam                    -3.5 
## 10 East Asia & Pacific Japan                                -3.10
## # ... with 54 more rows
…
